Copyright 1986-2019 Xilinx, Inc. All Rights Reserved.
---------------------------------------------------------------------------------------------------------------------------------------------------------------
| Tool Version : Vivado v.2019.1 (win64) Build 2552052 Fri May 24 14:49:42 MDT 2019
| Date         : Tue Sep 24 19:17:29 2019
| Host         : DESKTOP-KJRH3BJ running 64-bit major release  (build 9200)
| Command      : report_bus_skew -warn_on_violation -file controller_bus_skew_routed.rpt -pb controller_bus_skew_routed.pb -rpx controller_bus_skew_routed.rpx
| Design       : controller
| Device       : 7a35t-cpg236
| Speed File   : -1  PRODUCTION 1.23 2018-06-13
---------------------------------------------------------------------------------------------------------------------------------------------------------------

Bus Skew Report

No bus skew constraints

